{
	"controllers": {
		"ergo": {
			"port": "auto",
			"sync_read": true,
			"attached_motors": ["arm"]
		}
	},
    "motorgroups": {
    "arm" : ["Az","Ay","By","Cx","Dy"]
    },
	"motors": {
		"Az": {
			"id": 1,
			"type": "MX-28",
			"orientation": "direct",
			"offset": 0,
			"angle_limit": [-120,120]
		},
		"Ay": {
			"id": 2,
			"type": "MX-28",
			"orientation": "direct",
			"offset": 0,
			"angle_limit": [-120,120]
		},
		"By": {
			"id": 3,
			"type": "MX-28",
			"orientation": "indirect",
			"offset": 0,
			"angle_limit": [-120,120]
		},
		"Cx": {
			"id": 4,
			"type": "MX-28",
			"orientation": "indirect",
			"offset": 0,
			"angle_limit": [-120,120]
		},
		"Dy": {
			"id": 5,
			"type": "MX-28",
			"orientation": "indirect",
			"offset": 0,
			"angle_limit": [-120,120]
		}
	}
}